INDEX VERSION 1.131+/home/felipe/workspace/.metadata/.plugins/org.eclipse.jdt.core
2720371021.index
1946866037.index
1089239932.index
2359322674.index
1628719284.index
1820129962.index
3788254912.index
3066711521.index
3883508318.index
1946913640.index
502732891.index
1628095091.index
3191144407.index
2528295825.index
1628687906.index
856508448.index
578270138.index
1707571003.index
1228891976.index
3312442146.index
3052699122.index
2253745042.index
1621884962.index
71359723.index
2576652504.index
3318470864.index
2622386212.index
2232464752.index
3349868722.index
3553113391.index
664599498.index
925982370.index
4142468239.index
3539432263.index
1970159360.index
269174382.index
74021336.index
1766136821.index
2735936175.index
1312752760.index
2521976497.index
2922389522.index
3563256493.index
262461511.index
1745319334.index
2318037402.index
3713090603.index
806331798.index
2870858608.index
3831147348.index
712506723.index
109416178.index
4139273715.index
2247428181.index
5990989.index
161258014.index
157302063.index
2942607554.index
829210630.index
1895143838.index
789538694.index
1926155292.index
1051964523.index
3530540584.index
683886064.index
813341167.index
590133196.index
1962981439.index
2420359375.index
2414658142.index
1366576461.index
2729777708.index
821608291.index
2938754201.index
4086278872.index
3342439247.index
829381171.index
2506615265.index
4174522483.index
2250967378.index
2882741506.index
3301504496.index
1117754063.index
98799059.index
2502923336.index
4186679014.index
3612212077.index
489328369.index
596981544.index
3006321119.index
1647016255.index
3304154338.index
2104411483.index
3811800286.index
3281752362.index
1082837675.index
2744878784.index
590826648.index
3632494088.index
3485262699.index
1108833443.index
1696481326.index
959650006.index
1132815504.index
861064094.index
2121942033.index
2876681431.index
3512161136.index
3375908178.index
38093466.index
503514432.index
1864455800.index
1338181498.index
